LAB5
…
#3 create a data frame containing the most dangerous vehicle make in each state.

new_dat <- acc_with_state_names %>% inner_join(per, by=c('ST_CASE', 'STATE')) %>% select(STATE, state_name, MAKE)
most_dangerous <- new_dat %>%
  filter(!is.na(MAKE)) %>%
  group_by(STATE, state_name, MAKE) %>%
  summarize(number_accidents=n()) %>%
  filter(number_accidents==max(number_accidents))

## `summarise()` has grouped output by 'STATE', 'state_name'. You can override using the `.groups` argument.

most_dangerous

## # A tibble: 52 x 4
## # Groups:   STATE, state_name [51]
##    STATE state_name            MAKE number_accidents
##    <dbl> <chr>                <int>            <int>
##  1     1 ALABAMA                 20              293
##  2     2 ALASKA                  20               29
##  3     4 ARIZONA                 12              305
##  4     5 ARKANSAS                20              171
##  5     6 CALIFORNIA              49             1079
##  6     8 COLORADO                12              176
##  7     9 CONNECTICUT             37               63
##  8    10 DELAWARE                12               29
##  9    10 DELAWARE                37               29
## 10    11 DISTRICT OF COLUMBIA    37               13
## #  with 42 more rows
…
dat

## # A tibble: 51 x 3
##    state_name           num_summer_accidents num_winter_accidents
##    <chr>                               <int>                <int>
##  1 ALABAMA                               221                  199
##  2 ALASKA                                 23                   21
##  3 ARIZONA                               226                  223
##  4 ARKANSAS                              127                  104
##  5 CALIFORNIA                            871                  785
##  6 COLORADO                              191                  117
##  7 CONNECTICUT                            62                   60
##  8 DELAWARE                               28                   25
##  9 DISTRICT OF COLUMBIA                   10                    7
## 10 FLORIDA                               675                  768
## #  with 41 more rows
…
